[
	{"name": "Krita_Utilities_Setup", "pipeline": "krita/Krita_Utilities_Setup.pipeline", "cron": ""},
	{"name": "Krita_Nightly_Appimage_Build", "pipeline": "krita/Krita_Nightly_Appimage_Build.pipeline", "cron": "@daily"},
	{"name": "Krita_Nightly_Android_arm64-v8a_Build", "pipeline": "krita/Krita_Nightly_Android_arm64-v8a_Build.pipeline", "cron": "@daily"},
	{"name": "Krita_Nightly_Windows_Build", "pipeline": "krita/Krita_Nightly_Windows_Build.pipeline", "cron": "@daily"},
	{"name": "Krita_Nightly_MacOS_Build", "pipeline": "krita/Krita_Nightly_MacOS_Build.pipeline", "cron": "@daily"},

	{"name": "Krita_Stable_Appimage_Build", "pipeline": "krita/Krita_Stable_Appimage_Build.pipeline",  "cron": "@daily"},
	{"name": "Krita_Stable_Windows_Build", "pipeline": "krita/Krita_Stable_Windows_Build.pipeline", "cron": "@daily"},
	{"name": "Krita_Stable_MacOS_Build", "pipeline": "krita/Krita_Stable_MacOS_Build.pipeline", "cron": "@daily"},

	{"name": "Krita_Nightly_Windows_Dependency_Build", "pipeline": "krita/Krita_Nightly_Windows_Dependency_Build.pipeline", "cron": ""},
	{"name": "Krita_Nightly_Appimage_Dependency_Build", "pipeline": "krita/Krita_Nightly_Appimage_Dependency_Build.pipeline", "cron": ""},
	{"name": "Krita_Nightly_MacOS_Dependency_Build", "pipeline": "krita/Krita_Nightly_MacOS_Dependency_Build.pipeline", "cron": ""},

	{"name": "Krita_Android_arm64-v8a_Dependency_Build", "pipeline": "krita/Krita_Android_arm64-v8a_Dependency_Build.pipeline", "cron": ""},
	{"name": "Krita_Android_armeabi-v7a_Dependency_Build", "pipeline": "krita/Krita_Android_armeabi-v7a_Dependency_Build.pipeline", "cron": ""},
	{"name": "Krita_Android_x86_Dependency_Build", "pipeline": "krita/Krita_Android_x86_64_Dependency_Build.pipeline", "cron": ""},
	{"name": "Krita_Android_x86_64_Dependency_Build", "pipeline": "krita/Krita_Android_x86_64_Dependency_Build.pipeline", "cron": ""},

	{"name": "Krita_Release_Appimage_Build", "pipeline": "krita/Krita_Release_Appimage_Build.pipeline", "cron": ""},
	{"name": "Krita_Release_Windows64_Build", "pipeline": "krita/Krita_Release_Windows64_Build.pipeline", "cron": ""},
	{"name": "Krita_Release_Windows32_Build", "pipeline": "krita/Krita_Release_Windows32_Build.pipeline", "cron": ""},
	{"name": "Krita_Release_Windows32_Dependency_Build", "pipeline": "krita/Krita_Release_Windows32_Dependency_Build.pipeline", "cron": ""},
	{"name": "Krita_Release_MacOS_Build", "pipeline": "krita/Krita_Release_MacOS_Build.pipeline", "cron": ""},
	{"name": "Krita_Release_Android_arm64-v8a_Build", "pipeline": "krita/Krita_Release_Android_arm64-v8a_Build.pipeline", "cron": ""},
	{"name": "Krita_Release_Android_armeabi-v7a_Build", "pipeline": "krita/Krita_Release_Android_armeabi-v7a_Build.pipeline", "cron": ""},
	{"name": "Krita_Release_Android_x86_Build", "pipeline": "krita/Krita_Release_Android_x86_64_Build.pipeline", "cron": ""},
	{"name": "Krita_Release_Android_x86_64_Build", "pipeline": "krita/Krita_Release_Android_x86_64_Build.pipeline", "cron": ""},

	{"name": "KMyMoney_Nightly_Appimage_Build", "pipeline": "kmymoney/KMyMoney_Nightly_Appimage_Build.pipeline", "cron": "@daily"},
	{"name": "KMyMoney_Nightly_Appimage_Dependency_Build", "pipeline": "kmymoney/KMyMoney_Nightly_Appimage_Dependency_Build.pipeline", "cron": ""},
	{"name": "KMyMoney_Release_Appimage_Build", "pipeline": "kmymoney/KMyMoney_Release_Appimage_Build.pipeline", "cron": ""},
	{"name": "KMyMoney_Stable_Appimage_Build", "pipeline": "kmymoney/KMyMoney_Stable_Appimage_Build.pipeline", "cron": "@daily"},

	{"name": "Kdenlive_Nightly_Appimage_Build", "pipeline": "kdenlive/Kdenlive_Nightly_Appimage_Build.pipeline", "cron": "@daily"},
	{"name": "Kdenlive_Nightly_Appimage_Dependency_Build", "pipeline": "kdenlive/Kdenlive_Nightly_Appimage_Dependency_Build.pipeline", "cron": ""}
]
